Output/sevseg_tb.vcd
$date
  Mon Apr  1 16:20:22 2019
$end
$version
  GHDL v0
$end
$timescale
  1 fs
$end
$var reg 1 ! in_clk $end
$var reg 1 " in_rst $end
$var reg 1 # in_vld $end
$var reg 16 $ in_tmp[15:0] $end
$var reg 8 % dbg_seg[7:0] $end
$var reg 8 & dbg_an[7:0] $end
$var reg 8 ' dbg_seg0[7:0] $end
$var reg 8 ( dbg_seg1[7:0] $end
$var reg 8 ) dbg_seg2[7:0] $end
$var reg 8 * dbg_seg3[7:0] $end
$var reg 8 + dbg_seg4[7:0] $end
$var reg 8 , dbg_seg5[7:0] $end
$var reg 8 - dbg_seg6[7:0] $end
$var reg 8 . dbg_seg7[7:0] $end
$var reg 1 / finish $end
$scope module uut $end
$var reg 1 0 in_clk $end
$var reg 1 1 in_rst $end
$var reg 1 2 in_vld $end
$var reg 16 3 in_tmp[15:0] $end
$var reg 8 4 out_seg[7:0] $end
$var reg 8 5 out_an[7:0] $end
$var reg 8 6 dbg_seg0[7:0] $end
$var reg 8 7 dbg_seg1[7:0] $end
$var reg 8 8 dbg_seg2[7:0] $end
$var reg 8 9 dbg_seg3[7:0] $end
$var reg 8 : dbg_seg4[7:0] $end
$var reg 8 ; dbg_seg5[7:0] $end
$var reg 8 < dbg_seg6[7:0] $end
$var reg 8 = dbg_seg7[7:0] $end
$comment cout is not handled $end
$upscope $end
$enddefinitions $end
#0
0!
1"
1#
b0000000000000000 $
bUUUUUUUU %
bUUUUUUUU &
bUUUUUUUU '
bUUUUUUUU (
bUUUUUUUU )
bUUUUUUUU *
bUUUUUUUU +
bUUUUUUUU ,
bUUUUUUUU -
bUUUUUUUU .
0/
00
11
12
b0000000000000000 3
bUUUUUUUU 4
bUUUUUUUU 5
bUUUUUUUU 6
bUUUUUUUU 7
bUUUUUUUU 8
bUUUUUUUU 9
bUUUUUUUU :
bUUUUUUUU ;
bUUUUUUUU <
bUUUUUUUU =
#5000000
1!
b00000000 '
b00000000 (
b00000000 )
b00000000 *
b00000000 +
b00000000 ,
b00000000 -
b00000000 .
10
b00000000 6
b00000000 7
b00000000 8
b00000000 9
b00000000 :
b00000000 ;
b00000000 <
b00000000 =
#10000000
0!
b0000111100110000 $
00
b0000111100110000 3
#15000000
1!
10
#20000000
0!
00
#25000000
1!
b00000011 )
b00000011 +
b00000111 ,
b00000101 -
10
b00000011 8
b00000011 :
b00000111 ;
b00000101 <
#30000000
0!
00
#35000000
1!
10
#40000000
0!
00
#45000000
1!
10
#50000000
0!
00
#55000000
1!
10
#60000000
0!
00
#65000000
1!
10
#70000000
0!
00
#75000000
1!
10
#80000000
0!
00
#85000000
1!
10
#90000000
0!
00
#95000000
1!
10
#100000000
0!
00
#105000000
1!
10
#110000000
0!
00
#115000000
1!
10
#120000000
0!
00
#125000000
1!
10
#130000000
0!
00
#135000000
1!
10
#140000000
0!
00
#145000000
1!
10
#150000000
0!
00
#155000000
1!
10
#160000000
0!
00
#165000000
1!
10
#170000000
0!
00
#175000000
1!
10
#180000000
0!
00
#185000000
1!
10
#190000000
0!
00
#195000000
1!
10
#200000000
0!
00
#205000000
1!
10
#210000000
0!
00
#215000000
1!
10
#220000000
0!
00
#225000000
1!
10
#230000000
0!
00
#235000000
1!
10
#240000000
0!
00
#245000000
1!
10
#250000000
0!
00
#255000000
1!
10
#260000000
0!
00
#265000000
1!
10
#270000000
0!
00
#275000000
1!
10
#280000000
0!
00
#285000000
1!
10
#290000000
0!
00
#295000000
1!
10
#300000000
0!
00
#305000000
1!
10
#310000000
0!
00
#315000000
1!
10
#320000000
0!
00
#325000000
1!
10
#330000000
0!
00
#335000000
1!
10
#340000000
0!
00
#345000000
1!
10
#350000000
0!
00
#355000000
1!
10
#360000000
0!
00
#365000000
1!
10
#370000000
0!
00
#375000000
1!
10
#380000000
0!
00
#385000000
1!
10
#390000000
0!
00
#395000000
1!
10
#400000000
0!
00
#405000000
1!
10
#410000000
0!
00
#415000000
1!
10
#420000000
0!
00
#425000000
1!
10
#430000000
0!
00
#435000000
1!
10
#440000000
0!
00
#445000000
1!
10
#450000000
0!
00
#455000000
1!
10
#460000000
0!
00
#465000000
1!
10
#470000000
0!
00
#475000000
1!
10
#480000000
0!
00
#485000000
1!
10
#490000000
0!
00
#495000000
1!
10
#500000000
0!
00
#505000000
1!
10
#510000000
0!
00
#515000000
1!
10
#520000000
0!
00
#525000000
1!
10
#530000000
0!
00
#535000000
1!
10
#540000000
0!
00
#545000000
1!
10
#550000000
0!
00
#555000000
1!
10
#560000000
0!
00
#565000000
1!
10
#570000000
0!
00
#575000000
1!
10
#580000000
0!
00
#585000000
1!
10
#590000000
0!
00
#595000000
1!
10
#600000000
0!
00
#605000000
1!
10
#610000000
0!
00
#615000000
1!
b00000011 %
b00000001 &
10
b00000011 4
b00000001 5
#620000000
0!
00
#625000000
1!
10
#630000000
0!
00
#635000000
1!
10
#640000000
0!
00
#645000000
1!
10
#650000000
0!
00
#655000000
1!
10
#660000000
0!
00
#665000000
1!
10
#670000000
0!
00
#675000000
1!
10
#680000000
0!
00
#685000000
1!
10
#690000000
0!
00
#695000000
1!
10
#700000000
0!
00
#705000000
1!
10
#710000000
0!
00
#715000000
1!
10
#720000000
0!
00
#725000000
1!
10
#730000000
0!
00
#735000000
1!
10
#740000000
0!
00
#745000000
1!
10
#750000000
0!
00
#755000000
1!
10
#760000000
0!
00
#765000000
1!
10
#770000000
0!
00
#775000000
1!
10
#780000000
0!
00
#785000000
1!
10
#790000000
0!
00
#795000000
1!
10
#800000000
0!
00
#805000000
1!
10
#810000000
0!
00
#815000000
1!
10
#820000000
0!
00
#825000000
1!
10
#830000000
0!
00
#835000000
1!
10
#840000000
0!
00
#845000000
1!
10
#850000000
0!
00
#855000000
1!
10
#860000000
0!
00
#865000000
1!
10
#870000000
0!
00
#875000000
1!
10
#880000000
0!
00
#885000000
1!
10
#890000000
0!
00
#895000000
1!
10
#900000000
0!
00
#905000000
1!
10
#910000000
0!
00
#915000000
1!
10
#920000000
0!
00
#925000000
1!
10
#930000000
0!
00
#935000000
1!
10
#940000000
0!
00
#945000000
1!
10
#950000000
0!
00
#955000000
1!
10
#960000000
0!
00
#965000000
1!
10
#970000000
0!
00
#975000000
1!
10
#980000000
0!
00
#985000000
1!
10
#990000000
0!
00
#995000000
1!
10
#1000000000
0!
00
#1005000000
1!
10
#1010000000
0!
00
#1015000000
1!
10
#1020000000
0!
00
#1025000000
1!
10
#1030000000
0!
00
#1035000000
1!
10
#1040000000
0!
00
#1045000000
1!
10
#1050000000
0!
00
#1055000000
1!
10
#1060000000
0!
00
#1065000000
1!
10
#1070000000
0!
00
#1075000000
1!
10
#1080000000
0!
00
#1085000000
1!
10
#1090000000
0!
00
#1095000000
1!
10
#1100000000
0!
00
#1105000000
1!
10
#1110000000
0!
00
#1115000000
1!
10
#1120000000
0!
00
#1125000000
1!
10
#1130000000
0!
00
#1135000000
1!
10
#1140000000
0!
00
#1145000000
1!
10
#1150000000
0!
00
#1155000000
1!
10
#1160000000
0!
00
#1165000000
1!
10
#1170000000
0!
00
#1175000000
1!
10
#1180000000
0!
00
#1185000000
1!
10
#1190000000
0!
00
#1195000000
1!
10
#1200000000
0!
00
#1205000000
1!
10
#1210000000
0!
00
#1215000000
1!
10
#1220000000
0!
00
#1225000000
1!
10
#1230000000
0!
00
#1235000000
1!
b00000010 &
10
b00000010 5
#1240000000
0!
00
#1245000000
1!
10
#1250000000
0!
00
#1255000000
1!
10
#1260000000
0!
00
#1265000000
1!
10
#1270000000
0!
00
#1275000000
1!
10
#1280000000
0!
00
#1285000000
1!
10
#1290000000
0!
00
#1295000000
1!
10
#1300000000
0!
00
#1305000000
1!
10
#1310000000
0!
00
#1315000000
1!
10
#1320000000
0!
00
#1325000000
1!
10
#1330000000
0!
00
#1335000000
1!
10
#1340000000
0!
00
#1345000000
1!
10
#1350000000
0!
00
#1355000000
1!
10
#1360000000
0!
00
#1365000000
1!
10
#1370000000
0!
00
#1375000000
1!
10
#1380000000
0!
00
#1385000000
1!
10
#1390000000
0!
00
#1395000000
1!
10
#1400000000
0!
00
#1405000000
1!
10
#1410000000
0!
00
#1415000000
1!
10
#1420000000
0!
00
#1425000000
1!
10
#1430000000
0!
00
#1435000000
1!
10
#1440000000
0!
00
#1445000000
1!
10
#1450000000
0!
00
#1455000000
1!
10
#1460000000
0!
00
#1465000000
1!
10
#1470000000
0!
00
#1475000000
1!
10
#1480000000
0!
00
#1485000000
1!
10
#1490000000
0!
00
#1495000000
1!
10
#1500000000
0!
00
#1505000000
1!
10
#1510000000
0!
00
#1515000000
1!
10
#1520000000
0!
00
#1525000000
1!
10
#1530000000
0!
00
#1535000000
1!
10
#1540000000
0!
00
#1545000000
1!
10
#1550000000
0!
00
#1555000000
1!
10
#1560000000
0!
00
#1565000000
1!
10
#1570000000
0!
00
#1575000000
1!
10
#1580000000
0!
00
#1585000000
1!
10
#1590000000
0!
00
#1595000000
1!
10
#1600000000
0!
00
#1605000000
1!
10
#1610000000
0!
00
#1615000000
1!
10
#1620000000
0!
00
#1625000000
1!
10
#1630000000
0!
00
#1635000000
1!
10
#1640000000
0!
00
#1645000000
1!
10
#1650000000
0!
00
#1655000000
1!
10
#1660000000
0!
00
#1665000000
1!
10
#1670000000
0!
00
#1675000000
1!
10
#1680000000
0!
00
#1685000000
1!
10
#1690000000
0!
00
#1695000000
1!
10
#1700000000
0!
00
#1705000000
1!
10
#1710000000
0!
00
#1715000000
1!
10
#1720000000
0!
00
#1725000000
1!
10
#1730000000
0!
00
#1735000000
1!
10
#1740000000
0!
00
#1745000000
1!
10
#1750000000
0!
00
#1755000000
1!
10
#1760000000
0!
00
#1765000000
1!
10
#1770000000
0!
00
#1775000000
1!
10
#1780000000
0!
00
#1785000000
1!
10
#1790000000
0!
00
#1795000000
1!
10
#1800000000
0!
00
#1805000000
1!
10
#1810000000
0!
00
#1815000000
1!
10
#1820000000
0!
00
#1825000000
1!
10
#1830000000
0!
00
#1835000000
1!
10
#1840000000
0!
00
#1845000000
1!
10
#1850000000
0!
00
#1855000000
1!
b00001101 %
b00000100 &
10
b00001101 4
b00000100 5
#1860000000
0!
00
#1865000000
1!
10
#1870000000
0!
00
#1875000000
1!
10
#1880000000
0!
00
#1885000000
1!
10
#1890000000
0!
00
#1895000000
1!
10
#1900000000
0!
00
#1905000000
1!
10
#1910000000
0!
00
#1915000000
1!
10
#1920000000
0!
00
#1925000000
1!
10
#1930000000
0!
00
#1935000000
1!
10
#1940000000
0!
00
#1945000000
1!
10
#1950000000
0!
00
#1955000000
1!
10
#1960000000
0!
00
#1965000000
1!
10
#1970000000
0!
00
#1975000000
1!
10
#1980000000
0!
00
#1985000000
1!
10
#1990000000
0!
00
#1995000000
1!
10
#2000000000
0!
00
#2005000000
1!
10
#2010000000
0!
00
#2015000000
1!
10
#2020000000
0!
00
#2025000000
1!
10
#2030000000
0!
00
#2035000000
1!
10
#2040000000
0!
00
#2045000000
1!
10
#2050000000
0!
00
#2055000000
1!
10
#2060000000
0!
00
#2065000000
1!
10
#2070000000
0!
00
#2075000000
1!
10
#2080000000
0!
00
#2085000000
1!
10
#2090000000
0!
00
#2095000000
1!
10
#2100000000
0!
00
#2105000000
1!
10
#2110000000
0!
00
#2115000000
1!
10
#2120000000
0!
00
#2125000000
1!
10
#2130000000
0!
00
#2135000000
1!
10
#2140000000
0!
00
#2145000000
1!
10
#2150000000
0!
00
#2155000000
1!
10
#2160000000
0!
00
#2165000000
1!
10
#2170000000
0!
00
#2175000000
1!
10
#2180000000
0!
00
#2185000000
1!
10
#2190000000
0!
00
#2195000000
1!
10
#2200000000
0!
00
#2205000000
1!
10
#2210000000
0!
00
#2215000000
1!
10
#2220000000
0!
00
#2225000000
1!
10
#2230000000
0!
00
#2235000000
1!
10
#2240000000
0!
00
#2245000000
1!
10
#2250000000
0!
00
#2255000000
1!
10
#2260000000
0!
00
#2265000000
1!
10
#2270000000
0!
00
#2275000000
1!
10
#2280000000
0!
00
#2285000000
1!
10
#2290000000
0!
00
#2295000000
1!
10
#2300000000
0!
00
#2305000000
1!
10
#2310000000
0!
00
#2315000000
1!
10
#2320000000
0!
00
#2325000000
1!
10
#2330000000
0!
00
#2335000000
1!
10
#2340000000
0!
00
#2345000000
1!
10
#2350000000
0!
00
#2355000000
1!
10
#2360000000
0!
00
#2365000000
1!
10
#2370000000
0!
00
#2375000000
1!
10
#2380000000
0!
00
#2385000000
1!
10
#2390000000
0!
00
#2395000000
1!
10
#2400000000
0!
00
#2405000000
1!
10
#2410000000
0!
00
#2415000000
1!
10
#2420000000
0!
00
#2425000000
1!
10
#2430000000
0!
00
#2435000000
1!
10
#2440000000
0!
00
#2445000000
1!
10
#2450000000
0!
00
#2455000000
1!
10
#2460000000
0!
00
#2465000000
1!
10
#2470000000
0!
00
#2475000000
1!
b00000010 %
b00001000 &
10
b00000010 4
b00001000 5
