Task1/DSP/DSP_tb.vcd
$date
  Sat Apr  6 23:33:00 2019
$end
$version
  GHDL v0
$end
$timescale
  1 fs
$end
$var reg 16 ! idata[15:0] $end
$var reg 3 " size[2:0] $end
$var reg 16 # avg[15:0] $end
$var reg 1 $ drdy $end
$var reg 1 % rst $end
$var reg 1 & err $end
$var reg 1 ' vld $end
$var reg 1 ( clk $end
$var reg 1 ) dbg_ld2 $end
$var reg 8 * dbg_size[7:0] $end
$var reg 6 + dbg_ptr[5:0] $end
$var reg 1 , finish $end
$scope module dsp_0 $end
$var reg 1 - in_clk $end
$var reg 1 . in_rst $end
$var reg 1 / in_drdy $end
$var reg 1 0 in_err $end
$var reg 16 1 in_data[15:0] $end
$var reg 3 2 in_size[2:0] $end
$var reg 1 3 out_vld $end
$var reg 16 4 out_avg[15:0] $end
$var reg 1 5 in_dbg_sw3 $end
$var reg 1 6 dbg_ld2 $end
$var reg 8 7 dbg_size[7:0] $end
$var reg 6 8 dbg_ptr[5:0] $end
$var integer 32 9 ptr $end
$var reg 2 : detector[1:0] $end
$var reg 16 ; data_tmp[15:0] $end
$var reg 1 < dbg_hlp $end
$comment state is not handled $end
$upscope $end
$enddefinitions $end
#0
b0000000000000000 !
b010 "
bUUUUUUUUUUUUUUUU #
0$
0%
0&
U'
0(
U)
bUUUUUUUU *
bUUUUUU +
0,
0-
0.
0/
00
b0000000000000000 1
b010 2
U3
bUUUUUUUUUUUUUUUU 4
05
U6
bUUUUUUUU 7
bUUUUUU 8
b0 9
b00 :
b0000000000000000 ;
0<
#5000000
b0000000000000000 #
1'
1(
b00000000 *
1-
13
b0000000000000000 4
b00000000 7
#10000000
1%
0(
0-
1.
#15000000
1(
1-
#20000000
0(
0-
#25000000
1(
b00000010 *
1-
b00000010 7
#30000000
0(
0-
#35000000
b0000111100110000 !
1$
1(
1-
1/
b0000111100110000 1
#40000000
0(
0-
#45000000
b0000000000000000 !
0$
1(
1-
0/
b0000000000000000 1
#50000000
0(
0-
#55000000
1(
b000001 +
1-
b000001 8
#60000000
0(
0-
#65000000
1(
b000010 +
1-
b000010 8
#70000000
0(
0-
#75000000
1(
b000011 +
1-
b000011 8
#80000000
0(
0-
#85000000
1(
b000100 +
1-
b000100 8
#90000000
0(
0-
#95000000
b0000111000100000 #
1(
1-
b0000111000100000 4
#100000000
0(
0-
#105000000
1(
1-
#110000000
0(
0-
#115000000
1(
1-
#120000000
0(
0-
#125000000
b0000111100110011 !
1$
1(
1-
1/
b0000111100110011 1
#130000000
0(
0-
#135000000
b0000000000000000 !
0$
1(
1-
0/
b0000000000000000 1
#140000000
0(
0-
#145000000
1(
b000001 +
1-
b000001 8
#150000000
0(
0-
#155000000
1(
b000010 +
1-
b000010 8
#160000000
0(
0-
#165000000
1(
b000011 +
1-
b000011 8
#170000000
0(
0-
#175000000
1(
b000100 +
1-
b000100 8
#180000000
0(
0-
#185000000
b0000111100110000 #
1(
1-
b0000111100110000 4
#190000000
0(
0-
#195000000
1(
1-
#200000000
0(
0-
#205000000
1(
1-
#210000000
0(
0-
#215000000
1(
1-
#220000000
0(
0-
#225000000
1(
1-
#230000000
0(
0-
#235000000
b0000111100110010 !
1$
1(
1-
1/
b0000111100110010 1
#240000000
0(
0-
#245000000
b0000000000000000 !
0$
1(
1-
0/
b0000000000000000 1
#250000000
0(
0-
#255000000
1(
b000001 +
1-
b000001 8
#260000000
0(
0-
#265000000
1(
b000010 +
1-
b000010 8
#270000000
0(
0-
#275000000
1(
b000011 +
1-
b000011 8
#280000000
0(
0-
#285000000
1(
b000100 +
1-
b000100 8
#290000000
0(
0-
#295000000
b0000111000100000 #
1(
1-
b0000111000100000 4
#300000000
0(
0-
#305000000
1(
1-
#310000000
0(
0-
#315000000
1(
1-
#320000000
0(
0-
#325000000
b0000111100110001 !
1$
1(
1-
1/
b0000111100110001 1
#330000000
0(
0-
#335000000
b0000000000000000 !
0$
1(
1-
0/
b0000000000000000 1
#340000000
0(
0-
#345000000
1(
b000001 +
1-
b000001 8
#350000000
0(
0-
#355000000
1(
b000010 +
1-
b000010 8
#360000000
0(
0-
#365000000
1(
b000011 +
1-
b000011 8
#370000000
0(
0-
#375000000
1(
b000100 +
1-
b000100 8
#380000000
0(
0-
#385000000
b0000111100110000 #
1(
1-
b0000111100110000 4
#390000000
0(
0-
#395000000
1(
1-
#400000000
0(
0-
#405000000
1(
1-
#410000000
0(
0-
#415000000
1(
1-
#420000000
0(
0-
#425000000
1(
1-
#430000000
0(
0-
#435000000
1(
1-
#440000000
0(
0-
#445000000
1(
1-
#450000000
0(
0-
#455000000
1(
1-
#460000000
0(
0-
#465000000
b0000111100110100 !
1$
1(
1-
1/
b0000111100110100 1
#470000000
0(
0-
#475000000
b0000000000000000 !
0$
1(
1-
0/
b0000000000000000 1
#480000000
0(
0-
#485000000
1(
b000001 +
1-
b000001 8
#490000000
0(
0-
#495000000
1(
b000010 +
1-
b000010 8
#500000000
0(
0-
#505000000
1(
b000011 +
1-
b000011 8
#510000000
0(
0-
#515000000
1(
b000100 +
1-
b000100 8
#520000000
0(
0-
#525000000
b0000111000100000 #
1(
1-
b0000111000100000 4
#530000000
0(
0-
#535000000
1(
1-
#540000000
0(
0-
#545000000
1(
1-
#550000000
0(
0-
#555000000
b0000111100110000 !
1$
1(
1-
1/
b0000111100110000 1
#560000000
0(
0-
#565000000
b0000000000000000 !
0$
1(
1-
0/
b0000000000000000 1
#570000000
0(
0-
#575000000
1(
b000001 +
1-
b000001 8
#580000000
0(
0-
#585000000
1(
b000010 +
1-
b000010 8
#590000000
0(
0-
#595000000
1(
b000011 +
1-
b000011 8
#600000000
0(
0-
#605000000
1(
b000100 +
1-
b000100 8
#610000000
0(
0-
#615000000
b0000111100110000 #
1(
1-
b0000111100110000 4
#620000000
0(
0-
#625000000
1(
1-
#630000000
0(
0-
#635000000
1(
1-
#640000000
0(
0-
#645000000
b0000111100110001 !
1$
1(
1-
1/
b0000111100110001 1
#650000000
0(
0-
#655000000
b0000000000000000 !
0$
1(
1-
0/
b0000000000000000 1
#660000000
0(
0-
#665000000
1(
b000001 +
1-
b000001 8
#670000000
0(
0-
#675000000
1(
b000010 +
1-
b000010 8
#680000000
0(
0-
#685000000
1(
b000011 +
1-
b000011 8
#690000000
0(
0-
#695000000
1(
b000100 +
1-
b000100 8
#700000000
0(
0-
#705000000
b0000111000100000 #
1(
1-
b0000111000100000 4
#710000000
0(
0-
#715000000
1(
1-
#720000000
0(
0-
#725000000
1(
1-
#730000000
0(
0-
#735000000
b0000111100110000 !
1$
1(
1-
1/
b0000111100110000 1
#740000000
0(
0-
#745000000
b0000000000000000 !
0$
1(
1-
0/
b0000000000000000 1
#750000000
0(
0-
#755000000
1(
b000001 +
1-
b000001 8
#760000000
0(
0-
#765000000
1(
b000010 +
1-
b000010 8
#770000000
0(
0-
#775000000
1(
b000011 +
1-
b000011 8
#780000000
0(
0-
#785000000
1(
b000100 +
1-
b000100 8
#790000000
0(
0-
#795000000
b0000111100110000 #
1(
1-
b0000111100110000 4
#800000000
0(
0-
#805000000
1(
1-
#810000000
0(
0-
#815000000
1(
1-
#820000000
0(
0-
#825000000
b0111111000100000 !
1$
1(
1-
1/
b0111111000100000 1
#830000000
0(
0-
#835000000
b0000000000000000 !
0$
1(
1-
0/
b0000000000000000 1
#840000000
0(
0-
#845000000
1(
b000001 +
1-
b000001 8
#850000000
0(
0-
#855000000
1(
b000010 +
1-
b000010 8
#860000000
0(
0-
#865000000
1(
b000011 +
1-
b000011 8
#870000000
0(
0-
#875000000
1(
b000100 +
1-
b000100 8
#880000000
0(
0-
#885000000
b0000111000100000 #
1(
1-
b0000111000100000 4
#890000000
0(
0-
#895000000
1(
1-
#900000000
0(
0-
#905000000
1(
1-
#910000000
0(
0-
#915000000
b0111111000010000 !
1$
1(
1-
1/
b0111111000010000 1
#920000000
0(
0-
#925000000
b0000000000000000 !
0$
1(
1-
0/
b0000000000000000 1
#930000000
0(
0-
#935000000
1(
b000001 +
1-
b000001 8
#940000000
0(
0-
#945000000
1(
b000010 +
1-
b000010 8
#950000000
0(
0-
#955000000
1(
b000011 +
1-
b000011 8
#960000000
0(
0-
#965000000
1(
b000100 +
1-
b000100 8
#970000000
0(
0-
#975000000
b0000111100110000 #
1(
1-
b0000111100110000 4
#980000000
0(
0-
#985000000
1(
1-
#990000000
0(
0-
#995000000
1(
1-
#1000000000
0(
0-
#1005000000
b0111111100110000 !
1$
1(
1-
1/
b0111111100110000 1
#1010000000
0(
0-
#1015000000
b0000000000000000 !
0$
1(
1-
0/
b0000000000000000 1
#1020000000
0(
0-
#1025000000
1(
b000001 +
1-
b000001 8
#1030000000
0(
0-
#1035000000
1(
b000010 +
1-
b000010 8
#1040000000
0(
0-
#1045000000
1(
b000011 +
1-
b000011 8
#1050000000
0(
0-
#1055000000
1(
b000100 +
1-
b000100 8
#1060000000
0(
0-
#1065000000
b0000111000100000 #
1(
1-
b0000111000100000 4
#1070000000
0(
0-
#1075000000
1(
1-
#1080000000
0(
0-
#1085000000
1(
1-
#1090000000
0(
0-
#1095000000
b0111111100110010 !
1$
1(
1-
1/
b0111111100110010 1
#1100000000
0(
0-
#1105000000
b0000000000000000 !
0$
1(
1-
0/
b0000000000000000 1
#1110000000
0(
0-
#1115000000
1(
b000001 +
1-
b000001 8
#1120000000
0(
0-
#1125000000
1(
b000010 +
1-
b000010 8
#1130000000
0(
0-
#1135000000
1(
b000011 +
1-
b000011 8
#1140000000
0(
0-
#1145000000
1(
b000100 +
1-
b000100 8
#1150000000
0(
0-
#1155000000
b0000111100110000 #
1(
1-
b0000111100110000 4
#1160000000
0(
0-
#1165000000
1(
1-
#1170000000
0(
0-
#1175000000
1(
1-
#1180000000
0(
0-
#1185000000
b0111111100110001 !
1$
1(
1-
1/
b0111111100110001 1
#1190000000
0(
0-
#1195000000
b0000000000000000 !
0$
1(
1-
0/
b0000000000000000 1
#1200000000
0(
0-
#1205000000
1(
b000001 +
1-
b000001 8
#1210000000
0(
0-
#1215000000
1(
b000010 +
1-
b000010 8
#1220000000
0(
0-
#1225000000
1(
b000011 +
1-
b000011 8
#1230000000
0(
0-
#1235000000
1(
b000100 +
1-
b000100 8
#1240000000
0(
0-
#1245000000
b0000111000100000 #
1(
1-
b0000111000100000 4
#1250000000
0(
0-
#1255000000
1(
1-
#1260000000
0(
0-
#1265000000
1(
1-
#1270000000
0(
0-
#1275000000
b0111111100111001 !
1$
1(
1-
1/
b0111111100111001 1
#1280000000
0(
0-
#1285000000
b0000000000000000 !
0$
1(
1-
0/
b0000000000000000 1
#1290000000
0(
0-
#1295000000
1(
b000001 +
1-
b000001 8
#1300000000
0(
0-
#1305000000
1(
b000010 +
1-
b000010 8
#1310000000
0(
0-
#1315000000
1(
b000011 +
1-
b000011 8
#1320000000
0(
0-
#1325000000
1(
b000100 +
1-
b000100 8
#1330000000
0(
0-
#1335000000
b0000111100110000 #
1(
1-
b0000111100110000 4
#1340000000
0(
0-
#1345000000
1(
1-
#1350000000
0(
0-
#1355000000
1(
1-
#1360000000
0(
0-
#1365000000
b0111111100110111 !
1$
1(
1-
1/
b0111111100110111 1
#1370000000
0(
0-
#1375000000
b0000000000000000 !
0$
1(
1-
0/
b0000000000000000 1
#1380000000
0(
0-
#1385000000
1(
b000001 +
1-
b000001 8
#1390000000
0(
0-
#1395000000
1(
b000010 +
1-
b000010 8
#1400000000
0(
0-
#1405000000
1(
b000011 +
1-
b000011 8
#1410000000
0(
0-
#1415000000
1(
b000100 +
1-
b000100 8
#1420000000
0(
0-
#1425000000
b0000111000100000 #
1(
1-
b0000111000100000 4
#1430000000
0(
0-
#1435000000
1(
1-
#1440000000
0(
0-
#1445000000
1(
1-
#1450000000
0(
0-
#1455000000
b0111111101000000 !
1$
1(
1-
1/
b0111111101000000 1
#1460000000
0(
0-
#1465000000
b0000000000000000 !
0$
1(
1-
0/
b0000000000000000 1
#1470000000
0(
0-
#1475000000
1(
b000001 +
1-
b000001 8
#1480000000
0(
0-
#1485000000
1(
b000010 +
1-
b000010 8
#1490000000
0(
0-
#1495000000
1(
b000011 +
1-
b000011 8
#1500000000
0(
0-
#1505000000
1(
b000100 +
1-
b000100 8
#1510000000
0(
0-
#1515000000
b0000111100110000 #
1(
1-
b0000111100110000 4
#1520000000
0(
0-
#1525000000
1(
1-
#1530000000
0(
0-
#1535000000
1(
1-
#1540000000
0(
0-
#1545000000
b0111111100111001 !
1$
1(
1-
1/
b0111111100111001 1
#1550000000
0(
0-
#1555000000
b0000000000000000 !
0$
1(
1-
0/
b0000000000000000 1
#1560000000
0(
0-
#1565000000
1(
b000001 +
1-
b000001 8
#1570000000
0(
0-
#1575000000
1(
b000010 +
1-
b000010 8
#1580000000
0(
0-
#1585000000
1(
b000011 +
1-
b000011 8
#1590000000
0(
0-
#1595000000
1(
b000100 +
1-
b000100 8
#1600000000
0(
0-
#1605000000
b0000111000100000 #
1(
1-
b0000111000100000 4
#1610000000
0(
0-
#1615000000
1(
1-
#1620000000
0(
0-
#1625000000
1(
1-
#1630000000
0(
0-
#1635000000
b0111111110000000 !
1$
1(
1-
1/
b0111111110000000 1
#1640000000
0(
0-
#1645000000
b0000000000000000 !
0$
1(
1-
0/
b0000000000000000 1
#1650000000
0(
0-
#1655000000
1(
b000001 +
1-
b000001 8
#1660000000
0(
0-
#1665000000
1(
b000010 +
1-
b000010 8
#1670000000
0(
0-
#1675000000
1(
b000011 +
1-
b000011 8
#1680000000
0(
0-
#1685000000
1(
b000100 +
1-
b000100 8
#1690000000
0(
0-
#1695000000
b0000111100110000 #
1(
1-
b0000111100110000 4
#1700000000
0(
0-
#1705000000
1(
1-
#1710000000
0(
0-
#1715000000
1(
1-
#1720000000
0(
0-
#1725000000
b0000111100110000 !
b100 "
1$
1(
1-
1/
b0000111100110000 1
b100 2
#1730000000
0(
0-
#1735000000
b0000000000000000 !
0$
1(
1-
0/
b0000000000000000 1
#1740000000
0(
0-
#1745000000
1(
b00000100 *
1-
b00000100 7
#1750000000
0(
0-
#1755000000
1(
1-
#1760000000
0(
0-
#1765000000
1(
1-
#1770000000
0(
0-
#1775000000
1(
1-
#1780000000
0(
0-
#1785000000
1(
1-
#1790000000
0(
0-
#1795000000
1(
1-
#1800000000
0(
0-
#1805000000
1(
1-
#1810000000
0(
0-
#1815000000
1(
1-
#1820000000
0(
0-
#1825000000
1(
1-
#1830000000
0(
0-
#1835000000
1(
1-
#1840000000
0(
0-
#1845000000
1(
1-
#1850000000
0(
0-
#1855000000
1(
1-
#1860000000
0(
0-
#1865000000
1(
1-
#1870000000
0(
0-
#1875000000
1(
1-
#1880000000
0(
0-
#1885000000
1(
1-
#1890000000
0(
0-
#1895000000
1(
1-
#1900000000
0(
0-
#1905000000
1(
1-
#1910000000
0(
0-
#1915000000
1(
1-
#1920000000
0(
0-
#1925000000
1(
1-
#1930000000
0(
0-
#1935000000
b0000111100110011 !
1$
1(
1-
1/
b0000111100110011 1
#1940000000
0(
0-
#1945000000
b0000000000000000 !
0$
1(
1-
0/
b0000000000000000 1
#1950000000
0(
0-
#1955000000
1(
b000001 +
1-
b000001 8
#1960000000
0(
0-
#1965000000
1(
b000010 +
1-
b000010 8
#1970000000
0(
0-
#1975000000
1(
b000011 +
1-
b000011 8
#1980000000
0(
0-
#1985000000
1(
b000100 +
1-
b000100 8
#1990000000
0(
0-
#1995000000
1(
b000101 +
1-
b000101 8
#2000000000
0(
0-
#2005000000
1(
b000110 +
1-
b000110 8
#2010000000
0(
0-
#2015000000
1(
b000111 +
1-
b000111 8
#2020000000
0(
0-
#2025000000
1(
b001000 +
1-
b001000 8
#2030000000
0(
0-
#2035000000
1(
b001001 +
1-
b001001 8
#2040000000
0(
0-
#2045000000
1(
b001010 +
1-
b001010 8
#2050000000
0(
0-
#2055000000
1(
b001011 +
1-
b001011 8
#2060000000
0(
0-
#2065000000
1(
b001100 +
1-
b001100 8
#2070000000
0(
0-
#2075000000
1(
b001101 +
1-
b001101 8
#2080000000
0(
0-
#2085000000
1(
b001110 +
1-
b001110 8
#2090000000
0(
0-
#2095000000
1(
b001111 +
1-
b001111 8
#2100000000
0(
0-
#2105000000
1(
b010000 +
1-
b010000 8
#2110000000
0(
0-
#2115000000
b0000111000100000 #
1(
1-
b0000111000100000 4
#2120000000
0(
0-
#2125000000
1(
1-
#2130000000
0(
0-
#2135000000
1(
1-
#2140000000
0(
0-
#2145000000
b0000111100110010 !
1$
1(
1-
1/
b0000111100110010 1
#2150000000
0(
0-
#2155000000
b0000000000000000 !
0$
1(
1-
0/
b0000000000000000 1
#2160000000
0(
0-
#2165000000
1(
b000001 +
1-
b000001 8
#2170000000
0(
0-
#2175000000
1(
b000010 +
1-
b000010 8
#2180000000
0(
0-
#2185000000
1(
b000011 +
1-
b000011 8
#2190000000
0(
0-
#2195000000
1(
b000100 +
1-
b000100 8
#2200000000
0(
0-
#2205000000
1(
b000101 +
1-
b000101 8
#2210000000
0(
0-
#2215000000
1(
b000110 +
1-
b000110 8
#2220000000
0(
0-
#2225000000
1(
b000111 +
1-
b000111 8
#2230000000
0(
0-
#2235000000
1(
b001000 +
1-
b001000 8
#2240000000
0(
0-
#2245000000
1(
b001001 +
1-
b001001 8
#2250000000
0(
0-
#2255000000
1(
b001010 +
1-
b001010 8
#2260000000
0(
0-
#2265000000
1(
b001011 +
1-
b001011 8
#2270000000
0(
0-
#2275000000
1(
b001100 +
1-
b001100 8
#2280000000
0(
0-
#2285000000
1(
b001101 +
1-
b001101 8
#2290000000
0(
0-
#2295000000
1(
b001110 +
1-
b001110 8
#2300000000
0(
0-
#2305000000
1(
b001111 +
1-
b001111 8
#2310000000
0(
0-
#2315000000
1(
b010000 +
1-
b010000 8
#2320000000
0(
0-
#2325000000
b0000111100110000 #
1(
1-
b0000111100110000 4
#2330000000
0(
0-
#2335000000
1(
1-
#2340000000
0(
0-
#2345000000
1(
1-
#2350000000
0(
0-
#2355000000
b0000111100110001 !
1$
1(
1-
1/
b0000111100110001 1
#2360000000
0(
0-
#2365000000
b0000000000000000 !
0$
1(
1-
0/
b0000000000000000 1
#2370000000
0(
0-
#2375000000
1(
b000001 +
1-
b000001 8
#2380000000
0(
0-
#2385000000
1(
b000010 +
1-
b000010 8
#2390000000
0(
0-
#2395000000
1(
b000011 +
1-
b000011 8
#2400000000
0(
0-
#2405000000
1(
b000100 +
1-
b000100 8
#2410000000
0(
0-
#2415000000
1(
b000101 +
1-
b000101 8
#2420000000
0(
0-
#2425000000
1(
b000110 +
1-
b000110 8
#2430000000
0(
0-
#2435000000
1(
b000111 +
1-
b000111 8
#2440000000
0(
0-
#2445000000
1(
b001000 +
1-
b001000 8
#2450000000
0(
0-
#2455000000
1(
b001001 +
1-
b001001 8
#2460000000
0(
0-
#2465000000
1(
b001010 +
1-
b001010 8
#2470000000
0(
0-
#2475000000
1(
b001011 +
1-
b001011 8
#2480000000
0(
0-
#2485000000
1(
b001100 +
1-
b001100 8
#2490000000
0(
0-
#2495000000
1(
b001101 +
1-
b001101 8
#2500000000
0(
0-
#2505000000
1(
b001110 +
1-
b001110 8
#2510000000
0(
0-
#2515000000
1(
b001111 +
1-
b001111 8
#2520000000
0(
0-
#2525000000
1(
b010000 +
1-
b010000 8
#2530000000
0(
0-
#2535000000
b0000111000100000 #
1(
1-
b0000111000100000 4
#2540000000
0(
0-
#2545000000
1(
1-
#2550000000
0(
0-
#2555000000
1(
1-
#2560000000
0(
0-
#2565000000
b0000111100110100 !
1$
1(
1-
1/
b0000111100110100 1
#2570000000
0(
0-
#2575000000
b0000000000000000 !
0$
1(
1-
0/
b0000000000000000 1
#2580000000
0(
0-
#2585000000
1(
b000001 +
1-
b000001 8
#2590000000
0(
0-
#2595000000
1(
b000010 +
1-
b000010 8
#2600000000
0(
0-
#2605000000
1(
b000011 +
1-
b000011 8
#2610000000
0(
0-
#2615000000
1(
b000100 +
1-
b000100 8
#2620000000
0(
0-
#2625000000
1(
b000101 +
1-
b000101 8
#2630000000
0(
0-
#2635000000
1(
b000110 +
1-
b000110 8
#2640000000
0(
0-
#2645000000
1(
b000111 +
1-
b000111 8
#2650000000
0(
0-
#2655000000
1(
b001000 +
1-
b001000 8
#2660000000
0(
0-
#2665000000
1(
b001001 +
1-
b001001 8
#2670000000
0(
0-
#2675000000
1(
b001010 +
1-
b001010 8
#2680000000
0(
0-
#2685000000
1(
b001011 +
1-
b001011 8
#2690000000
0(
0-
#2695000000
1(
b001100 +
1-
b001100 8
#2700000000
0(
0-
#2705000000
1(
b001101 +
1-
b001101 8
#2710000000
0(
0-
#2715000000
1(
b001110 +
1-
b001110 8
#2720000000
0(
0-
#2725000000
1(
b001111 +
1-
b001111 8
#2730000000
0(
0-
#2735000000
1(
b010000 +
1-
b010000 8
#2740000000
0(
0-
#2745000000
b0000111100110000 #
1(
1-
b0000111100110000 4
#2750000000
0(
0-
#2755000000
1(
1-
#2760000000
0(
0-
#2765000000
1(
1-
#2770000000
0(
0-
#2775000000
b0000111100110000 !
1$
1(
1-
1/
b0000111100110000 1
#2780000000
0(
0-
#2785000000
b0000000000000000 !
0$
1(
1-
0/
b0000000000000000 1
#2790000000
0(
0-
#2795000000
1(
b000001 +
1-
b000001 8
#2800000000
0(
0-
#2805000000
1(
b000010 +
1-
b000010 8
#2810000000
0(
0-
#2815000000
1(
b000011 +
1-
b000011 8
#2820000000
0(
0-
#2825000000
1(
b000100 +
1-
b000100 8
#2830000000
0(
0-
#2835000000
1(
b000101 +
1-
b000101 8
#2840000000
0(
0-
#2845000000
1(
b000110 +
1-
b000110 8
#2850000000
0(
0-
#2855000000
1(
b000111 +
1-
b000111 8
#2860000000
0(
0-
#2865000000
1(
b001000 +
1-
b001000 8
#2870000000
0(
0-
#2875000000
1(
b001001 +
1-
b001001 8
#2880000000
0(
0-
#2885000000
1(
b001010 +
1-
b001010 8
#2890000000
0(
0-
#2895000000
1(
b001011 +
1-
b001011 8
#2900000000
0(
0-
#2905000000
1(
b001100 +
1-
b001100 8
#2910000000
0(
0-
#2915000000
1(
b001101 +
1-
b001101 8
#2920000000
0(
0-
#2925000000
1(
b001110 +
1-
b001110 8
#2930000000
0(
0-
#2935000000
1(
b001111 +
1-
b001111 8
#2940000000
0(
0-
#2945000000
1(
b010000 +
1-
b010000 8
#2950000000
0(
0-
#2955000000
b0000111000100000 #
1(
1-
b0000111000100000 4
#2960000000
0(
0-
#2965000000
1(
1-
#2970000000
0(
0-
#2975000000
1(
1-
#2980000000
0(
0-
#2985000000
b0000111100110001 !
1$
1(
1-
1/
b0000111100110001 1
#2990000000
0(
0-
#2995000000
b0000000000000000 !
0$
1(
1-
0/
b0000000000000000 1
#3000000000
0(
0-
#3005000000
1(
b000001 +
1-
b000001 8
#3010000000
0(
0-
#3015000000
1(
b000010 +
1-
b000010 8
#3020000000
0(
0-
#3025000000
1(
b000011 +
1-
b000011 8
#3030000000
0(
0-
#3035000000
1(
b000100 +
1-
b000100 8
#3040000000
0(
0-
#3045000000
1(
b000101 +
1-
b000101 8
#3050000000
0(
0-
#3055000000
1(
b000110 +
1-
b000110 8
#3060000000
0(
0-
#3065000000
1(
b000111 +
1-
b000111 8
#3070000000
0(
0-
#3075000000
1(
b001000 +
1-
b001000 8
#3080000000
0(
0-
#3085000000
1(
b001001 +
1-
b001001 8
#3090000000
0(
0-
#3095000000
1(
b001010 +
1-
b001010 8
#3100000000
0(
0-
#3105000000
1(
b001011 +
1-
b001011 8
#3110000000
0(
0-
#3115000000
1(
b001100 +
1-
b001100 8
#3120000000
0(
0-
#3125000000
1(
b001101 +
1-
b001101 8
#3130000000
0(
0-
#3135000000
1(
b001110 +
1-
b001110 8
#3140000000
0(
0-
#3145000000
1(
b001111 +
1-
b001111 8
#3150000000
0(
0-
#3155000000
1(
b010000 +
1-
b010000 8
#3160000000
0(
0-
#3165000000
b0000111100110000 #
1(
1-
b0000111100110000 4
#3170000000
0(
0-
#3175000000
1(
1-
#3180000000
0(
0-
#3185000000
1(
1-
#3190000000
0(
0-
#3195000000
b0000111100110000 !
1$
1(
1-
1/
b0000111100110000 1
#3200000000
0(
0-
#3205000000
b0000000000000000 !
0$
1(
1-
0/
b0000000000000000 1
#3210000000
0(
0-
#3215000000
1(
b000001 +
1-
b000001 8
#3220000000
0(
0-
#3225000000
1(
b000010 +
1-
b000010 8
#3230000000
0(
0-
#3235000000
1(
b000011 +
1-
b000011 8
#3240000000
0(
0-
#3245000000
1(
b000100 +
1-
b000100 8
#3250000000
0(
0-
#3255000000
1(
b000101 +
1-
b000101 8
#3260000000
0(
0-
#3265000000
1(
b000110 +
1-
b000110 8
#3270000000
0(
0-
#3275000000
1(
b000111 +
1-
b000111 8
#3280000000
0(
0-
#3285000000
1(
b001000 +
1-
b001000 8
#3290000000
0(
0-
#3295000000
1(
b001001 +
1-
b001001 8
#3300000000
0(
0-
#3305000000
1(
b001010 +
1-
b001010 8
#3310000000
0(
0-
#3315000000
1(
b001011 +
1-
b001011 8
#3320000000
0(
0-
#3325000000
1(
b001100 +
1-
b001100 8
#3330000000
0(
0-
#3335000000
1(
b001101 +
1-
b001101 8
#3340000000
0(
0-
#3345000000
1(
b001110 +
1-
b001110 8
#3350000000
0(
0-
#3355000000
1(
b001111 +
1-
b001111 8
#3360000000
0(
0-
#3365000000
1(
b010000 +
1-
b010000 8
#3370000000
0(
0-
#3375000000
b0000111000100000 #
1(
1-
b0000111000100000 4
