DSP/DSP_tb.vcd
$date
  Sat Mar 23 23:24:53 2019
$end
$version
  GHDL v0
$end
$timescale
  1 fs
$end
$var reg 16 ! idata[15:0] $end
$var reg 8 " size[7:0] $end
$var reg 16 # avg[15:0] $end
$var reg 1 $ clk $end
$var reg 1 % finish $end
$scope module dsp_0 $end
$var reg 1 & in_clk $end
$var reg 8 ' in_size[7:0] $end
$var reg 16 ( in_data[15:0] $end
$var reg 16 ) out_avg[15:0] $end
$upscope $end
$enddefinitions $end
#0
b0000000000000000 !
b00001000 "
bUUUUUUUUUUUUUUUU #
0$
0%
0&
b00001000 '
b0000000000000000 (
bUUUUUUUUUUUUUUUU )
#2500000
b0000000000001000 !
b0000000000001000 (
#5000000
b0000000000000001 #
1$
1&
b0000000000000001 )
#10000000
0$
0&
#15000000
b0000000000000010 #
1$
1&
b0000000000000010 )
#20000000
0$
0&
#25000000
b0000000000000011 #
1$
1&
b0000000000000011 )
#30000000
0$
0&
#35000000
b0000000000000100 #
1$
1&
b0000000000000100 )
#40000000
0$
0&
#45000000
b0000000000000101 #
1$
1&
b0000000000000101 )
#50000000
0$
0&
#55000000
b0000000000000110 #
1$
1&
b0000000000000110 )
#60000000
0$
0&
#65000000
b0000000000000111 #
1$
1&
b0000000000000111 )
#70000000
0$
0&
#75000000
b0000000000001000 #
1$
1&
b0000000000001000 )
#80000000
0$
0&
#82500000
#85000000
1$
1&
#90000000
0$
0&
#95000000
1$
1&
#100000000
0$
0&
#105000000
1$
1&
#110000000
0$
0&
#115000000
1$
1&
#120000000
0$
0&
#125000000
1$
1&
#130000000
0$
0&
#132500000
b0000000100000000 !
b00001111 "
b00001111 '
b0000000100000000 (
#135000000
b0000000000010100 #
1$
1&
b0000000000010100 )
#140000000
0$
0&
#142500000
#145000000
b0000000000100101 #
1$
1&
b0000000000100101 )
#150000000
0$
0&
#155000000
b0000000000110110 #
1$
1&
b0000000000110110 )
#160000000
0$
0&
#165000000
b0000000001001000 #
1$
1&
b0000000001001000 )
#170000000
0$
0&
#175000000
b0000000001011001 #
1$
1&
b0000000001011001 )
#180000000
0$
0&
#185000000
b0000000001101010 #
1$
1&
b0000000001101010 )
#190000000
0$
0&
#195000000
b0000000001111011 #
1$
1&
b0000000001111011 )
#200000000
0$
0&
#205000000
b0000000010001011 #
1$
1&
b0000000010001011 )
#210000000
0$
0&
#215000000
b0000000010011100 #
1$
1&
b0000000010011100 )
#220000000
0$
0&
#225000000
b0000000010101100 #
1$
1&
b0000000010101100 )
#230000000
0$
0&
#235000000
b0000000010111101 #
1$
1&
b0000000010111101 )
#240000000
0$
0&
#245000000
b0000000011001110 #
1$
1&
b0000000011001110 )
#250000000
0$
0&
#255000000
b0000000011011110 #
1$
1&
b0000000011011110 )
#260000000
0$
0&
#265000000
b0000000011101111 #
1$
1&
b0000000011101111 )
#270000000
0$
0&
#275000000
b0000000100000000 #
1$
1&
b0000000100000000 )
#280000000
0$
0&
#285000000
1$
1&
#290000000
0$
0&
#295000000
1$
1&
#300000000
0$
0&
#305000000
1$
1&
#310000000
0$
0&
#315000000
1$
1&
#320000000
0$
0&
#325000000
1$
1&
#330000000
0$
0&
#335000000
1$
1&
#340000000
0$
0&
#342500000
#345000000
1$
1&
#350000000
0$
0&
#352500000
b0000000000000000 !
b0000000000000000 (
#355000000
1$
1&
#360000000
0$
0&
#365000000
b0000000011101110 #
1$
1&
b0000000011101110 )
#370000000
0$
0&
#375000000
b0000000011011101 #
1$
1&
b0000000011011101 )
#380000000
0$
0&
#385000000
b0000000011001100 #
1$
1&
b0000000011001100 )
#390000000
0$
0&
#395000000
b0000000010111011 #
1$
1&
b0000000010111011 )
#400000000
0$
0&
#405000000
b0000000010101010 #
1$
1&
b0000000010101010 )
#410000000
0$
0&
#415000000
b0000000010011001 #
1$
1&
b0000000010011001 )
#420000000
0$
0&
#425000000
b0000000010001000 #
1$
1&
b0000000010001000 )
#430000000
0$
0&
#435000000
b0000000001110111 #
1$
1&
b0000000001110111 )
#440000000
0$
0&
#445000000
b0000000001100110 #
1$
1&
b0000000001100110 )
#450000000
0$
0&
#455000000
b0000000001010101 #
1$
1&
b0000000001010101 )
#460000000
0$
0&
#465000000
b0000000001000100 #
1$
1&
b0000000001000100 )
#470000000
0$
0&
#475000000
b0000000000110011 #
1$
1&
b0000000000110011 )
#480000000
0$
0&
#485000000
b0000000000100010 #
1$
1&
b0000000000100010 )
#490000000
0$
0&
#495000000
b0000000000010001 #
1$
1&
b0000000000010001 )
#500000000
0$
0&
#505000000
b0000000000000000 #
1$
1&
b0000000000000000 )
