Task1/Sampling/try2/TempSensorCtl_tb.vcd
$date
  Wed Apr  3 14:32:09 2019
$end
$version
  GHDL v0
$end
$timescale
  1 fs
$end
$var reg 1 ! test_scl $end
$var reg 1 " test_sda $end
$var reg 1 # test_rdy $end
$var reg 1 $ test_err $end
$var reg 1 % test_clk $end
$var reg 1 & test_srst $end
$var reg 16 ' test_temp[15:0] $end
$var reg 1 ( dbg_1 $end
$scope module adt_0 $end
$var reg 1 ) inout_sda $end
$var reg 1 * inout_scl $end
$var reg 1 + in_clk $end
$var reg 1 , in_srst $end
$var reg 16 - out_tmp[15:0] $end
$var reg 1 . out_rdy $end
$var reg 1 / out_err $end
$var reg 1 0 dbg_1 $end
$var integer 32 1 counter $end
$var reg 1 2 clk $end
$var reg 1 3 reset_n $end
$var reg 1 4 i2c_ena $end
$var reg 7 5 i2c_addr[6:0] $end
$var reg 1 6 i2c_rw $end
$var reg 8 7 i2c_data_wr[7:0] $end
$var reg 1 8 i2c_busy $end
$var reg 8 9 i2c_data_rd[7:0] $end
$var reg 1 : i2c_ack_error $end
$var reg 1 ; sda $end
$var reg 1 < scl $end
$comment state is not handled $end
$var reg 16 = tempreg[15:0] $end
$var reg 1 > valid $end
$var reg 1 ? busy_prev $end
$var reg 1 @ start_i2c $end
$comment tempsensinitmap is not handled $end
$scope module i2c $end
$var reg 1 A clk $end
$var reg 1 B reset_n $end
$var reg 1 C ena $end
$var reg 7 D addr[6:0] $end
$var reg 1 E rw $end
$var reg 8 F data_wr[7:0] $end
$var reg 1 G busy $end
$var reg 8 H data_rd[7:0] $end
$var reg 1 I ack_error $end
$var reg 1 J sda $end
$var reg 1 K scl $end
$comment state is not handled $end
$var reg 1 L data_clk $end
$var reg 1 M data_clk_prev $end
$var reg 1 N scl_clk $end
$var reg 1 O scl_ena $end
$var reg 1 P sda_int $end
$var reg 1 Q sda_ena_n $end
$var reg 8 R addr_rw[7:0] $end
$var reg 8 S data_tx[7:0] $end
$var reg 8 T data_rx[7:0] $end
$var integer 32 U bit_cnt $end
$var reg 1 V stretch $end
$upscope $end
$upscope $end
$enddefinitions $end
#0
H!
H"
0#
0$
0%
0&
bUUUUUUUUUUUUUUUU '
0(
H)
H*
0+
0,
bUUUUUUUUUUUUUUUU -
0.
0/
00
b1001110000111111 1
U2
U3
14
b1001011 5
06
b00000011 7
18
b00000000 9
0:
U;
U<
bUUUUUUUUUUUUUUUU =
0>
U?
0@
0A
0B
1C
b1001011 D
0E
b00000011 F
1G
b00000000 H
0I
HJ
HK
UL
UM
UN
0O
1P
1Q
bUUUUUUUU R
bUUUUUUUU S
bUUUUUUUU T
b111 U
0V
#250000000
1%
1+
b1001110001000000 1
1?
1A
#500000000
0%
1&
1(
0+
1,
10
b0 1
b00000000 7
1@
0A
1B
b00000000 F
#750000000
1%
0(
1+
00
b1 1
0@
1A
1L
0N
#1000000000
0%
0+
0A
#1250000000
1%
1+
b10 1
1A
1M
1N
#1500000000
0%
0+
0A
#1750000000
1%
1+
b11 1
1A
0L
#2000000000
0%
0+
0A
#2250000000
1%
1+
b100 1
1A
0M
0N
#2500000000
0%
0+
0A
#2750000000
1%
1+
b101 1
1A
1L
#3000000000
0%
0+
0A
#3250000000
1%
1+
b110 1
1A
1M
1N
b10010110 R
b00000000 S
#3500000000
0%
0+
0A
#3750000000
1%
1+
b111 1
1A
0L
#4000000000
0%
0+
0A
#4250000000
0!
0"
1%
0)
0*
1+
b1000 1
1A
0J
0K
0M
0N
1O
0Q
#4500000000
0%
0+
0A
#4750000000
1%
1+
b1001 1
1A
1L
#5000000000
0%
0+
0A
#5250000000
H!
H"
1%
H)
H*
1+
b1010 1
1A
HJ
HK
1M
1N
1Q
1V
#5500000000
0%
0+
0A
#5750000000
1%
1+
b1011 1
1A
0V
#6000000000
0%
0+
0A
#6250000000
1%
1+
b1100 1
1A
0L
#6500000000
0%
0+
0A
#6750000000
0!
1%
0*
1+
b1101 1
1A
0K
0M
0N
#7000000000
0%
0+
0A
#7250000000
1%
1+
b1110 1
1A
1L
#7500000000
0%
0+
0A
#7750000000
H!
0"
1%
0)
H*
1+
b1111 1
1A
0J
HK
1M
1N
0P
0Q
b110 U
1V
#8000000000
0%
0+
0A
#8250000000
1%
1+
b10000 1
1A
0V
#8500000000
0%
0+
0A
#8750000000
1%
1+
b10001 1
1A
0L
#9000000000
0%
0+
0A
#9250000000
0!
1%
0*
1+
b10010 1
1A
0K
0M
0N
#9500000000
0%
0+
0A
#9750000000
1%
1+
b10011 1
1A
1L
#10000000000
0%
0+
0A
#10250000000
H!
1%
H*
1+
b10100 1
1A
HK
1M
1N
b101 U
1V
#10500000000
0%
0+
0A
#10750000000
1%
1+
b10101 1
1A
0V
#11000000000
0%
0+
0A
#11250000000
1%
1+
b10110 1
1A
0L
#11500000000
0%
0+
0A
#11750000000
0!
1%
0*
1+
b10111 1
1A
0K
0M
0N
#12000000000
0%
0+
0A
#12250000000
1%
1+
b11000 1
1A
1L
#12500000000
0%
0+
0A
#12750000000
H!
H"
1%
H)
H*
1+
b11001 1
1A
HJ
HK
1M
1N
1P
1Q
b100 U
1V
#13000000000
0%
0+
0A
#13250000000
1%
1+
b11010 1
1A
0V
#13500000000
0%
0+
0A
#13750000000
1%
1+
b11011 1
1A
0L
#14000000000
0%
0+
0A
#14250000000
0!
1%
0*
1+
b11100 1
1A
0K
0M
0N
#14500000000
0%
0+
0A
#14750000000
1%
1+
b11101 1
1A
1L
#15000000000
0%
0+
0A
#15250000000
H!
0"
1%
0)
H*
1+
b11110 1
1A
0J
HK
1M
1N
0P
0Q
b11 U
1V
#15500000000
0%
0+
0A
#15750000000
1%
1+
b11111 1
1A
0V
#16000000000
0%
0+
0A
#16250000000
1%
1+
b100000 1
1A
0L
#16500000000
0%
0+
0A
#16750000000
0!
1%
0*
1+
b100001 1
1A
0K
0M
0N
#17000000000
0%
0+
0A
#17250000000
1%
1+
b100010 1
1A
1L
#17500000000
0%
0+
0A
#17750000000
H!
H"
1%
H)
H*
1+
b100011 1
1A
HJ
HK
1M
1N
1P
1Q
b10 U
1V
#18000000000
0%
0+
0A
#18250000000
1%
1+
b100100 1
1A
0V
#18500000000
0%
0+
0A
#18750000000
1%
1+
b100101 1
1A
0L
#19000000000
0%
0+
0A
#19250000000
0!
1%
0*
1+
b100110 1
1A
0K
0M
0N
#19500000000
0%
0+
0A
#19750000000
1%
1+
b100111 1
1A
1L
#20000000000
0%
0+
0A
#20250000000
H!
1%
H*
1+
b101000 1
1A
HK
1M
1N
b1 U
1V
#20500000000
0%
0+
0A
#20750000000
1%
1+
b101001 1
1A
0V
#21000000000
0%
0+
0A
#21250000000
1%
1+
b101010 1
1A
0L
#21500000000
0%
0+
0A
#21750000000
0!
1%
0*
1+
b101011 1
1A
0K
0M
0N
#22000000000
0%
0+
0A
#22250000000
1%
1+
b101100 1
1A
1L
#22500000000
0%
0+
0A
#22750000000
H!
0"
1%
0)
H*
1+
b101101 1
1A
0J
HK
1M
1N
0P
0Q
b0 U
1V
#23000000000
0%
0+
0A
#23250000000
1%
1+
b101110 1
1A
0V
#23500000000
0%
0+
0A
#23750000000
1%
1+
b101111 1
1A
0L
#24000000000
0%
0+
0A
#24250000000
0!
1%
0*
1+
b110000 1
1A
0K
0M
0N
#24500000000
0%
0+
0A
#24750000000
1%
1+
b110001 1
1A
1L
#25000000000
0%
0+
0A
#25250000000
H!
H"
1%
H)
H*
1+
b110010 1
1A
HJ
HK
1M
1N
1P
1Q
b111 U
1V
#25500000000
0%
0+
0A
#25750000000
1%
1+
b110011 1
1A
0V
#26000000000
0%
0+
0A
#26250000000
1%
1+
b110100 1
1A
0L
#26500000000
0%
0+
0A
#26750000000
0!
1%
0*
1+
b110101 1
1:
1A
1I
0K
0M
0N
#27000000000
0%
0+
0A
#27250000000
1%
1+
b110110 1
1A
1L
#27500000000
0%
0+
0A
#27750000000
H!
0"
1%
0)
H*
1+
b110111 1
1A
0J
HK
1M
1N
0P
0Q
1V
#28000000000
0%
0+
0A
#28250000000
1%
1+
b111000 1
1A
0V
#28500000000
0%
0+
0A
#28750000000
1%
1+
b111001 1
1A
0L
#29000000000
0%
0+
0A
#29250000000
0!
1%
0*
1+
b111010 1
1A
0K
0M
0N
#29500000000
0%
0+
0A
#29750000000
1%
1+
b111011 1
1A
1L
#30000000000
0%
0+
0A
#30250000000
H!
1%
H*
1+
b111100 1
1A
HK
1M
1N
b110 U
1V
#30500000000
0%
0+
0A
#30750000000
1%
1+
b111101 1
1A
0V
#31000000000
0%
0+
0A
#31250000000
1%
1+
b111110 1
1A
0L
#31500000000
0%
0+
0A
#31750000000
0!
1%
0*
1+
b111111 1
1A
0K
0M
0N
#32000000000
0%
0+
0A
#32250000000
1%
1+
b1000000 1
1A
1L
#32500000000
0%
0+
0A
#32750000000
H!
1%
H*
1+
b1000001 1
1A
HK
1M
1N
b101 U
1V
#33000000000
0%
0+
0A
#33250000000
1%
1+
b1000010 1
1A
0V
#33500000000
0%
0+
0A
#33750000000
1%
1+
b1000011 1
1A
0L
#34000000000
0%
0+
0A
#34250000000
0!
1%
0*
1+
b1000100 1
1A
0K
0M
0N
#34500000000
0%
0+
0A
#34750000000
1%
1+
b1000101 1
1A
1L
#35000000000
0%
0+
0A
#35250000000
H!
1%
H*
1+
b1000110 1
1A
HK
1M
1N
b100 U
1V
#35500000000
0%
0+
0A
#35750000000
1%
1+
b1000111 1
1A
0V
#36000000000
0%
0+
0A
#36250000000
1%
1+
b1001000 1
1A
0L
#36500000000
0%
0+
0A
#36750000000
0!
1%
0*
1+
b1001001 1
1A
0K
0M
0N
#37000000000
0%
0+
0A
#37250000000
1%
1+
b1001010 1
1A
1L
#37500000000
0%
0+
0A
#37750000000
H!
1%
H*
1+
b1001011 1
1A
HK
1M
1N
b11 U
1V
#38000000000
0%
0+
0A
#38250000000
1%
1+
b1001100 1
1A
0V
#38500000000
0%
0+
0A
#38750000000
1%
1+
b1001101 1
1A
0L
#39000000000
0%
0+
0A
#39250000000
0!
1%
0*
1+
b1001110 1
1A
0K
0M
0N
#39500000000
0%
0+
0A
#39750000000
1%
1+
b1001111 1
1A
1L
#40000000000
0%
0+
0A
#40250000000
H!
1%
H*
1+
b1010000 1
1A
HK
1M
1N
b10 U
1V
#40500000000
0%
0+
0A
#40750000000
1%
1+
b1010001 1
1A
0V
#41000000000
0%
0+
0A
#41250000000
1%
1+
b1010010 1
1A
0L
#41500000000
0%
0+
0A
#41750000000
0!
1%
0*
1+
b1010011 1
1A
0K
0M
0N
#42000000000
0%
0+
0A
#42250000000
1%
1+
b1010100 1
1A
1L
#42500000000
0%
0+
0A
#42750000000
H!
1%
H*
1+
b1010101 1
1A
HK
1M
1N
b1 U
1V
#43000000000
0%
0+
0A
#43250000000
1%
1+
b1010110 1
1A
0V
#43500000000
0%
0+
0A
#43750000000
1%
1+
b1010111 1
1A
0L
#44000000000
0%
0+
0A
#44250000000
0!
1%
0*
1+
b1011000 1
1A
0K
0M
0N
#44500000000
0%
0+
0A
#44750000000
1%
1+
b1011001 1
1A
1L
#45000000000
0%
0+
0A
#45250000000
H!
1%
H*
1+
b1011010 1
1A
HK
1M
1N
b0 U
1V
#45500000000
0%
0+
0A
#45750000000
1%
1+
b1011011 1
1A
0V
#46000000000
0%
0+
0A
#46250000000
1%
1+
b1011100 1
1A
0L
#46500000000
0%
0+
0A
#46750000000
0!
1%
0*
1+
b1011101 1
1A
0K
0M
0N
#47000000000
0%
0+
0A
#47250000000
1%
1+
b1011110 1
1A
1L
#47500000000
0%
0+
0A
#47750000000
H!
H"
1%
H)
H*
1+
b1011111 1
1A
HJ
HK
1M
1N
1P
1Q
b111 U
1V
#48000000000
0%
0+
0A
#48250000000
1%
1+
b1100000 1
1A
0V
#48500000000
0%
0+
0A
#48750000000
1%
1+
b1100001 1
1A
0L
#49000000000
0%
0+
0A
#49250000000
0!
1%
0*
1+
b1100010 1
1A
0K
0M
0N
#49500000000
0%
0+
0A
#49750000000
1%
1+
b1100011 1
1A
1L
#50000000000
0%
0+
0A
#50250000000
H!
0"
1%
0)
H*
1+
b1100100 1
08
1A
0G
0J
HK
1M
1N
0P
0Q
1V
#50500000000
0%
0+
0?
0A
#50750000000
1%
1+
b1100101 1
1A
0V
#51000000000
0%
0+
0A
#51250000000
1%
1+
b1100110 1
1A
0L
#51500000000
0%
0+
0A
#51750000000
0!
1%
0*
1+
b1100111 1
1A
0K
0M
0N
#52000000000
0%
0+
0A
#52250000000
1%
1+
b1101000 1
1A
1L
#52500000000
0%
0+
0A
#52750000000
H!
1%
H*
1+
b1101001 1
18
1A
1G
HK
1M
1N
b110 U
1V
#53000000000
0%
0+
16
1?
0A
1E
#53250000000
1%
1+
b1101010 1
1A
0V
#53500000000
0%
0+
0A
#53750000000
1%
1+
b1101011 1
1A
0L
#54000000000
0%
0+
0A
#54250000000
0!
1%
0*
1+
b1101100 1
1A
0K
0M
0N
#54500000000
0%
0+
0A
#54750000000
1%
1+
b1101101 1
1A
1L
#55000000000
0%
0+
0A
#55250000000
H!
1%
H*
1+
b1101110 1
1A
HK
1M
1N
b101 U
1V
#55500000000
0%
0+
0A
#55750000000
1%
1+
b1101111 1
1A
0V
#56000000000
0%
0+
0A
#56250000000
1%
1+
b1110000 1
1A
0L
#56500000000
0%
0+
0A
#56750000000
0!
1%
0*
1+
b1110001 1
1A
0K
0M
0N
#57000000000
0%
0+
0A
#57250000000
1%
1+
b1110010 1
1A
1L
#57500000000
0%
0+
0A
#57750000000
H!
1%
H*
1+
b1110011 1
1A
HK
1M
1N
b100 U
1V
#58000000000
0%
0+
0A
#58250000000
1%
1+
b1110100 1
1A
0V
#58500000000
0%
0+
0A
#58750000000
1%
1+
b1110101 1
1A
0L
#59000000000
0%
0+
0A
#59250000000
0!
1%
0*
1+
b1110110 1
1A
0K
0M
0N
#59500000000
0%
0+
0A
#59750000000
1%
1+
b1110111 1
1A
1L
#60000000000
0%
0+
0A
#60250000000
H!
1%
H*
1+
b1111000 1
1A
HK
1M
1N
b11 U
1V
#60500000000
0%
0+
0A
#60750000000
1%
1+
b1111001 1
1A
0V
#61000000000
0%
0+
0A
#61250000000
1%
1+
b1111010 1
1A
0L
#61500000000
0%
0+
0A
#61750000000
0!
1%
0*
1+
b1111011 1
1A
0K
0M
0N
#62000000000
0%
0+
0A
#62250000000
1%
1+
b1111100 1
1A
1L
#62500000000
0%
0+
0A
#62750000000
H!
1%
H*
1+
b1111101 1
1A
HK
1M
1N
b10 U
1V
#63000000000
0%
0+
0A
#63250000000
1%
1+
b1111110 1
1A
0V
#63500000000
0%
0+
0A
#63750000000
1%
1+
b1111111 1
1A
0L
#64000000000
0%
0+
0A
#64250000000
0!
1%
0*
1+
b10000000 1
1A
0K
0M
0N
#64500000000
0%
0+
0A
#64750000000
1%
1+
b10000001 1
1A
1L
#65000000000
0%
0+
0A
#65250000000
H!
1%
H*
1+
b10000010 1
1A
HK
1M
1N
b1 U
1V
#65500000000
0%
0+
0A
#65750000000
1%
1+
b10000011 1
1A
0V
#66000000000
0%
0+
0A
#66250000000
1%
1+
b10000100 1
1A
0L
#66500000000
0%
0+
0A
#66750000000
0!
1%
0*
1+
b10000101 1
1A
0K
0M
0N
#67000000000
0%
0+
0A
#67250000000
1%
1+
b10000110 1
1A
1L
#67500000000
0%
0+
0A
#67750000000
H!
1%
H*
1+
b10000111 1
1A
HK
1M
1N
b0 U
1V
#68000000000
0%
0+
0A
#68250000000
1%
1+
b10001000 1
1A
0V
#68500000000
0%
0+
0A
#68750000000
1%
1+
b10001001 1
1A
0L
#69000000000
0%
0+
0A
#69250000000
0!
1%
0*
1+
b10001010 1
1A
0K
0M
0N
#69500000000
0%
0+
0A
#69750000000
1%
1+
b10001011 1
1A
1L
#70000000000
0%
0+
0A
#70250000000
H!
H"
1%
H)
H*
1+
b10001100 1
1A
HJ
HK
1M
1N
1P
1Q
b111 U
1V
#70500000000
0%
0+
0A
#70750000000
1%
1+
b10001101 1
1A
0V
#71000000000
0%
0+
0A
#71250000000
1%
1+
b10001110 1
1A
0L
#71500000000
0%
0+
0A
#71750000000
0!
1%
0*
1+
b10001111 1
1A
0K
0M
0N
#72000000000
0%
0+
0A
#72250000000
1%
1+
b10010000 1
1A
1L
#72500000000
0%
0+
0A
#72750000000
H!
1%
H*
1+
b10010001 1
08
1A
0G
HK
1M
1N
b10010111 R
1V
#73000000000
0%
0+
0?
0A
#73250000000
1%
1+
b10010010 1
1A
0V
#73500000000
0%
0+
0A
#73750000000
1%
1+
b10010011 1
1A
0L
#74000000000
0%
0+
0A
#74250000000
0!
0"
1%
0)
0*
1+
b10010100 1
1A
0J
0K
0M
0N
0Q
#74500000000
0%
0+
0A
#74750000000
1%
1+
b10010101 1
1A
1L
#75000000000
0%
0+
0A
#75250000000
H!
H"
1%
H)
H*
1+
b10010110 1
18
1A
1G
HJ
HK
1M
1N
1Q
1V
#75500000000
0%
0+
1?
0A
#75750000000
1%
1+
b10010111 1
1A
0V
#76000000000
0%
0+
0A
#76250000000
1%
1+
b10011000 1
1A
0L
#76500000000
0%
0+
0A
#76750000000
0!
1%
0*
1+
b10011001 1
1A
0K
0M
0N
#77000000000
0%
0+
0A
#77250000000
1%
1+
b10011010 1
1A
1L
#77500000000
0%
0+
0A
#77750000000
H!
0"
1%
0)
H*
1+
b10011011 1
1A
0J
HK
1M
1N
0P
0Q
b110 U
1V
#78000000000
0%
0+
0A
#78250000000
1%
1+
b10011100 1
1A
0V
#78500000000
0%
0+
0A
#78750000000
1%
1+
b10011101 1
1A
0L
#79000000000
0%
0+
0A
#79250000000
0!
1%
0*
1+
b10011110 1
1A
0K
0M
0N
#79500000000
0%
0+
0A
#79750000000
1%
1+
b10011111 1
1A
1L
#80000000000
0%
0+
0A
#80250000000
H!
1%
H*
1+
b10100000 1
1A
HK
1M
1N
b101 U
1V
#80500000000
0%
0+
0A
#80750000000
1%
1+
b10100001 1
1A
0V
#81000000000
0%
0+
0A
#81250000000
1%
1+
b10100010 1
1A
0L
#81500000000
0%
0+
0A
#81750000000
0!
1%
0*
1+
b10100011 1
1A
0K
0M
0N
#82000000000
0%
0+
0A
#82250000000
1%
1+
b10100100 1
1A
1L
#82500000000
0%
0+
0A
#82750000000
H!
H"
1%
H)
H*
1+
b10100101 1
1A
HJ
HK
1M
1N
1P
1Q
b100 U
1V
#83000000000
0%
0+
0A
#83250000000
1%
1+
b10100110 1
1A
0V
#83500000000
0%
0+
0A
#83750000000
1%
1+
b10100111 1
1A
0L
#84000000000
0%
0+
0A
#84250000000
0!
1%
0*
1+
b10101000 1
1A
0K
0M
0N
#84500000000
0%
0+
0A
#84750000000
1%
1+
b10101001 1
1A
1L
#85000000000
0%
0+
0A
#85250000000
H!
0"
1%
0)
H*
1+
b10101010 1
1A
0J
HK
1M
1N
0P
0Q
b11 U
1V
#85500000000
0%
0+
0A
#85750000000
1%
1+
b10101011 1
1A
0V
#86000000000
0%
0+
0A
#86250000000
1%
1+
b10101100 1
1A
0L
#86500000000
0%
0+
0A
#86750000000
0!
1%
0*
1+
b10101101 1
1A
0K
0M
0N
#87000000000
0%
0+
0A
#87250000000
1%
1+
b10101110 1
1A
1L
#87500000000
0%
0+
0A
#87750000000
H!
H"
1%
H)
H*
1+
b10101111 1
1A
HJ
HK
1M
1N
1P
1Q
b10 U
1V
#88000000000
0%
0+
0A
#88250000000
1%
1+
b10110000 1
1A
0V
#88500000000
0%
0+
0A
#88750000000
1%
1+
b10110001 1
1A
0L
#89000000000
0%
0+
0A
#89250000000
0!
1%
0*
1+
b10110010 1
1A
0K
0M
0N
#89500000000
0%
0+
0A
#89750000000
1%
1+
b10110011 1
1A
1L
#90000000000
0%
0+
0A
#90250000000
H!
1%
H*
1+
b10110100 1
1A
HK
1M
1N
b1 U
1V
#90500000000
0%
0+
0A
#90750000000
1%
1+
b10110101 1
1A
0V
#91000000000
0%
0+
0A
#91250000000
1%
1+
b10110110 1
1A
0L
#91500000000
0%
0+
0A
#91750000000
0!
1%
0*
1+
b10110111 1
1A
0K
0M
0N
#92000000000
0%
0+
0A
#92250000000
1%
1+
b10111000 1
1A
1L
#92500000000
0%
0+
0A
#92750000000
H!
1%
H*
1+
b10111001 1
1A
HK
1M
1N
b0 U
1V
#93000000000
0%
0+
0A
#93250000000
1%
1+
b10111010 1
1A
0V
#93500000000
0%
0+
0A
#93750000000
1%
1+
b10111011 1
1A
0L
#94000000000
0%
0+
0A
#94250000000
0!
1%
0*
1+
b10111100 1
1A
0K
0M
0N
#94500000000
0%
0+
0A
#94750000000
1%
1+
b10111101 1
1A
1L
#95000000000
0%
0+
0A
#95250000000
H!
1%
H*
1+
b10111110 1
1A
HK
1M
1N
b111 U
1V
#95500000000
0%
0+
0A
#95750000000
1%
1+
b10111111 1
1A
0V
#96000000000
0%
0+
0A
#96250000000
1%
1+
b11000000 1
1A
0L
#96500000000
0%
0+
0A
#96750000000
0!
1%
0*
1+
b11000001 1
1A
0K
0M
0N
#97000000000
0%
0+
0A
#97250000000
1%
1+
b11000010 1
1A
1L
#97500000000
0%
0+
0A
#97750000000
H!
1%
H*
1+
b11000011 1
1A
HK
1M
1N
1V
#98000000000
0%
0+
0A
#98250000000
1%
1+
b11000100 1
1A
0V
#98500000000
0%
0+
0A
#98750000000
1%
1+
b11000101 1
1A
0L
#99000000000
0%
0+
0A
#99250000000
0!
1%
0*
1+
b11000110 1
1A
0K
0M
0N
bHUUUUUUU T
#99500000000
0%
0+
0A
#99750000000
1%
1+
b11000111 1
1A
1L
#100000000000
0%
0+
0A
#100250000000
H!
1%
H*
1+
b11001000 1
1A
HK
1M
1N
b110 U
1V
#100500000000
0%
0+
0A
#100750000000
1%
1+
b11001001 1
1A
0V
#101000000000
0%
0+
0A
#101250000000
1%
1+
b11001010 1
1A
0L
#101500000000
0%
0+
0A
#101750000000
0!
1%
0*
1+
b11001011 1
1A
0K
0M
0N
bHHUUUUUU T
#102000000000
0%
0+
0A
#102250000000
1%
1+
b11001100 1
1A
1L
#102500000000
0%
0+
0A
#102750000000
H!
1%
H*
1+
b11001101 1
1A
HK
1M
1N
b101 U
1V
#103000000000
0%
0+
0A
#103250000000
1%
1+
b11001110 1
1A
0V
#103500000000
0%
0+
0A
#103750000000
1%
1+
b11001111 1
1A
0L
#104000000000
0%
0+
0A
#104250000000
0!
1%
0*
1+
b11010000 1
1A
0K
0M
0N
bHHHUUUUU T
#104500000000
0%
0+
0A
#104750000000
1%
1+
b11010001 1
1A
1L
#105000000000
0%
0+
0A
#105250000000
H!
1%
H*
1+
b11010010 1
1A
HK
1M
1N
b100 U
1V
#105500000000
0%
0+
0A
#105750000000
1%
1+
b11010011 1
1A
0V
#106000000000
0%
0+
0A
#106250000000
1%
1+
b11010100 1
1A
0L
#106500000000
0%
0+
0A
#106750000000
0!
1%
0*
1+
b11010101 1
1A
0K
0M
0N
bHHHHUUUU T
#107000000000
0%
0+
0A
#107250000000
1%
1+
b11010110 1
1A
1L
#107500000000
0%
0+
0A
#107750000000
H!
1%
H*
1+
b11010111 1
1A
HK
1M
1N
b11 U
1V
#108000000000
0%
0+
0A
#108250000000
1%
1+
b11011000 1
1A
0V
#108500000000
0%
0+
0A
#108750000000
1%
1+
b11011001 1
1A
0L
#109000000000
0%
0+
0A
#109250000000
0!
1%
0*
1+
b11011010 1
1A
0K
0M
0N
bHHHHHUUU T
#109500000000
0%
0+
0A
#109750000000
1%
1+
b11011011 1
1A
1L
#110000000000
0%
0+
0A
#110250000000
H!
1%
H*
1+
b11011100 1
1A
HK
1M
1N
b10 U
1V
#110500000000
0%
0+
0A
#110750000000
1%
1+
b11011101 1
1A
0V
#111000000000
0%
0+
0A
#111250000000
1%
1+
b11011110 1
1A
0L
#111500000000
0%
0+
0A
#111750000000
0!
1%
0*
1+
b11011111 1
1A
0K
0M
0N
bHHHHHHUU T
#112000000000
0%
0+
0A
#112250000000
1%
1+
b11100000 1
1A
1L
#112500000000
0%
0+
0A
#112750000000
H!
1%
H*
1+
b11100001 1
1A
HK
1M
1N
b1 U
1V
#113000000000
0%
0+
0A
#113250000000
1%
1+
b11100010 1
1A
0V
#113500000000
0%
0+
0A
#113750000000
1%
1+
b11100011 1
1A
0L
#114000000000
0%
0+
0A
#114250000000
0!
1%
0*
1+
b11100100 1
1A
0K
0M
0N
bHHHHHHHU T
#114500000000
0%
0+
0A
#114750000000
1%
1+
b11100101 1
1A
1L
#115000000000
0%
0+
0A
#115250000000
H!
1%
H*
1+
b11100110 1
1A
HK
1M
1N
b0 U
1V
#115500000000
0%
0+
0A
#115750000000
1%
1+
b11100111 1
1A
0V
#116000000000
0%
0+
0A
#116250000000
1%
1+
b11101000 1
1A
0L
#116500000000
0%
0+
0A
#116750000000
0!
1%
0*
1+
b11101001 1
1A
0K
0M
0N
bHHHHHHHH T
#117000000000
0%
0+
0A
#117250000000
1%
1+
b11101010 1
1A
1L
#117500000000
0%
0+
0A
#117750000000
H!
0"
1%
0)
H*
1+
b11101011 1
bHHHHHHHH 9
1A
bHHHHHHHH H
0J
HK
1M
1N
0P
0Q
b111 U
1V
#118000000000
0%
0+
0A
#118250000000
1%
1+
b11101100 1
1A
0V
#118500000000
0%
0+
0A
#118750000000
1%
1+
b11101101 1
1A
0L
#119000000000
0%
0+
0A
#119250000000
0!
1%
0*
1+
b11101110 1
1A
0K
0M
0N
#119500000000
0%
0+
0A
#119750000000
1%
1+
b11101111 1
1A
1L
#120000000000
0%
0+
0A
#120250000000
H!
H"
1%
H)
H*
1+
b11110000 1
08
1A
0G
HJ
HK
1M
1N
1P
1Q
1V
#120500000000
0%
bHHHHHHHHUUUUUUUU '
0+
bHHHHHHHHUUUUUUUU -
bHHHHHHHHUUUUUUUU =
0?
0A
#120750000000
1%
1+
b11110001 1
1A
0V
#121000000000
0%
0+
0A
#121250000000
1%
1+
b11110010 1
1A
0L
#121500000000
0%
0+
0A
#121750000000
0!
1%
0*
1+
b11110011 1
1A
0K
0M
0N
#122000000000
0%
0+
0A
#122250000000
1%
1+
b11110100 1
1A
1L
#122500000000
0%
0+
0A
#122750000000
H!
1%
H*
1+
b11110101 1
18
1A
1G
HK
1M
1N
b110 U
1V
#123000000000
0%
0+
04
1?
0A
0C
#123250000000
1%
1+
b11110110 1
1A
0V
#123500000000
0%
0+
0A
#123750000000
1%
1+
b11110111 1
1A
0L
#124000000000
0%
0+
0A
#124250000000
0!
1%
0*
1+
b11111000 1
1A
0K
0M
0N
#124500000000
0%
0+
0A
#124750000000
1%
1+
b11111001 1
1A
1L
#125000000000
0%
0+
0A
#125250000000
H!
1%
H*
1+
b11111010 1
1A
HK
1M
1N
b101 U
1V
#125500000000
0%
0+
0A
#125750000000
1%
1+
b11111011 1
1A
0V
#126000000000
0%
0+
0A
#126250000000
1%
1+
b11111100 1
1A
0L
#126500000000
0%
0+
0A
#126750000000
0!
1%
0*
1+
b11111101 1
1A
0K
0M
0N
#127000000000
0%
0+
0A
#127250000000
1%
1+
b11111110 1
1A
1L
#127500000000
0%
0+
0A
#127750000000
H!
1%
H*
1+
b11111111 1
1A
HK
1M
1N
b100 U
1V
#128000000000
0%
0+
0A
#128250000000
1%
1+
b100000000 1
1A
0V
#128500000000
0%
0+
0A
#128750000000
1%
1+
b100000001 1
1A
0L
#129000000000
0%
0+
0A
#129250000000
0!
1%
0*
1+
b100000010 1
1A
0K
0M
0N
#129500000000
0%
0+
0A
#129750000000
1%
1+
b100000011 1
1A
1L
#130000000000
0%
0+
0A
#130250000000
H!
1%
H*
1+
b100000100 1
1A
HK
1M
1N
b11 U
1V
#130500000000
0%
0+
0A
#130750000000
1%
1+
b100000101 1
1A
0V
#131000000000
0%
0+
0A
#131250000000
1%
1+
b100000110 1
1A
0L
#131500000000
0%
0+
0A
#131750000000
0!
1%
0*
1+
b100000111 1
1A
0K
0M
0N
#132000000000
0%
0+
0A
#132250000000
1%
1+
b100001000 1
1A
1L
#132500000000
0%
0+
0A
#132750000000
H!
1%
H*
1+
b100001001 1
1A
HK
1M
1N
b10 U
1V
#133000000000
0%
0+
0A
#133250000000
1%
1+
b100001010 1
1A
0V
#133500000000
0%
0+
0A
#133750000000
1%
1+
b100001011 1
1A
0L
#134000000000
0%
0+
0A
#134250000000
0!
1%
0*
1+
b100001100 1
1A
0K
0M
0N
#134500000000
0%
0+
0A
#134750000000
1%
1+
b100001101 1
1A
1L
#135000000000
0%
0+
0A
#135250000000
H!
1%
H*
1+
b100001110 1
1A
HK
1M
1N
b1 U
1V
#135500000000
0%
0+
0A
#135750000000
1%
1+
b100001111 1
1A
0V
#136000000000
0%
0+
0A
#136250000000
1%
1+
b100010000 1
1A
0L
#136500000000
0%
0+
0A
#136750000000
0!
1%
0*
1+
b100010001 1
1A
0K
0M
0N
#137000000000
0%
0+
0A
#137250000000
1%
1+
b100010010 1
1A
1L
#137500000000
0%
0+
0A
#137750000000
H!
1%
H*
1+
b100010011 1
1A
HK
1M
1N
b0 U
1V
#138000000000
0%
0+
0A
#138250000000
1%
1+
b100010100 1
1A
0V
#138500000000
0%
0+
0A
#138750000000
1%
1+
b100010101 1
1A
0L
#139000000000
0%
0+
0A
#139250000000
0!
1%
0*
1+
b100010110 1
1A
0K
0M
0N
#139500000000
0%
0+
0A
#139750000000
1%
1+
b100010111 1
1A
1L
#140000000000
0%
0+
0A
#140250000000
H!
1%
H*
1+
b100011000 1
1A
HK
1M
1N
b111 U
1V
#140500000000
0%
0+
0A
#140750000000
1%
1+
b100011001 1
1A
0V
#141000000000
0%
0+
0A
#141250000000
1%
1+
b100011010 1
1A
0L
#141500000000
0%
0+
0A
#141750000000
0!
1%
0*
1+
b100011011 1
1A
0K
0M
0N
#142000000000
0%
0+
0A
